Site,ID ,Number,Order,Date,Time,Dry Mass,Length (in mm) head to wing tip,Sum of Dry Mass,,
ST,I1,1,Trichoptera,5/16/2017,11:00,0.0062,12,,,
ST,I2,1,Trichoptera,5/16/2017,11:00,0.0011,8,,,
ST,I3,1,Trichoptera,5/16/2017,11:00,0.0006,6,,,if length is NA it is less than 1 mm
ST,I4,1,Diptera,5/16/2017,11:00,0.0002,2,,,
ST,I5,1,Diptera,5/16/2017,11:00,,2,,,
ST,I6,1,Trichoptera,5/18/2017,11:50,0.0024,10,,,
ST,I7,1,Trichoptera,5/18/2017,11:50,0.0016,7,,,
ST,I8,1,Trichoptera,5/18/2017,11:50,0.0019,8,0.014,,
LB,I9,1,Trichoptera,5/16/2017,10:50,0.0026,9,,,
LB,I10,1,Trichoptera,5/16/2017,10:50,0.0012,8,,,
LB,I11,1,Trichoptera,5/16/2017,10:50,0.0053,12,,,
LB,I12,1,Trichoptera,5/16/2017,10:50,0.0019,8,,,
LB,I13,1,Trichoptera,5/16/2017,10:50,0.0007,8,,,
LB,I14,1,Trichoptera,5/16/2017,10:50,0.0013,10,,,
LB,I15,1,Trichoptera,5/16/2017,10:50,0.001,8,,,
LB,I16,50,Diptera,5/16/2017,10:50,0.0011,,,,
LB,I17,1,Trichoptera,5/18/2017,14:40,0.0007,8,,,
LB,I18,1,Trichoptera,5/18/2017,14:40,0.0019,8,,,
LB,I19,1,Trichoptera,5/18/2017,14:40,0.0014,9,,,
LB,I20,1,Trichoptera,5/18/2017,14:40,0.0008,9,,,
LB,I21,1,Trichoptera,5/18/2017,14:40,0.0012,8,,,
LB,I22,28,Diptera,5/18/2017,14:40,0.0012,,0.0223,,
MR2,I23,1,Ephemeroptera,5/16/2017,11:20,0.0125,14,,,
MR2,I24,1,Araneidae,5/16/2017,11:20,0.0083,6,,,
MR2,I25,1,Plecoptera,5/16/2017,11:20,0.0014,9,,,
MR2,I26,1,Trichoptera,5/16/2017,11:20,0.0008,6,,,
MR2,I27,1,Ephemeroptera,5/16/2017,11:20,0.0003,7,,,
MR2,I28,1,Ephemeroptera,5/16/2017,11:20,0.0009,6,,,
MR2,I29,1,Ephemeroptera,5/16/2017,11:20,0.0005,5,,,
MR2,I30,27,Diptera,5/16/2017,11:20,0.001,,,,
MR2,I31,1,Plecoptera,5/16/2017,11:20,0.0009,6,,,
MR2,I32,1,Coleoptera,5/16/2017,11:20,0.0024,5,,,
MR2,I33,1,Ephemeroptera,5/16/2017,11:20,0.0005,4,,,
MR2,I34,1,Diptera,5/16/2017,11:20,0.0005,3,,,
MR2,I35,62,Diptera,5/16/2017,11:20,0.0034,,,,
MR2,I36,1,Ephemeroptera,5/18/2017,13:10,0.0002,4,,,
MR2,I37,1,Lepidotera,5/18/2017,13:10,0.0007,5,,,
MR2,I38,1,Plecoptera,5/18/2017,13:10,0.0005,7,,,
MR2,I39,1,Plecoptera,5/18/2017,13:10,0.0011,4,,,
MR2,I40,75,Diptera,5/18/2017,13:10,0.0021,,,,
MR2,I41,12,Ephemeroptera,5/18/2017,13:10,0.0018,,0.0398,,
MB,I42,1,Trichoptera,5/16/2017,10:10,0.0017,8,,,
MB,I43,1,Trichoptera,5/16/2017,10:10,0.003,9,,,
MB,I44,1,Coleoptera,5/16/2017,10:10,0.0006,3,,,
MB,I45,63,Diptera,5/16/2017,10:10,0.0055,,,,
MB,I46,1,Coleoptera,5/18/2017,9:50,0.0007,3,,,
MB,I47,1,Trichoptera,5/18/2017,9:50,0.0017,8,,,
MB,I48,1,Trichoptera,5/18/2017,9:50,0.0021,8,,,
MB,I49,1,Trichoptera,5/18/2017,9:50,0.0023,8,,,
MB,I50,1,Trichoptera,5/18/2017,9:50,0.0027,9,,,
MB,I51,1,Coleoptera,5/18/2017,9:50,0.0005,3,,,
MB,I52,35,Diptera,5/18/2017,9:50,0.0025,,0.0233,,
MR7,I53,1,Araneidae,5/16/2017,10:40,0.0042,5,,,
MR7,I54,1,Coleoptera,5/16/2017,10:40,0.0023,7,,,
MR7,I55,1,Hymenoptera,5/16/2017,10:40,0.0062,8,,,
MR7,I56,1,Hymenoptera,5/16/2017,10:40,0.0038,7,,,
MR7,I57,1,Diptera,5/16/2017,10:40,0.0006,5,,,
MR7,I58,25,Diptera,5/16/2017,10:40,0.0028,,,,
MR7,I59,1,Coleoptera,5/18/2017,14:40,0.0011,4,,,
MR7,I60,43,Diptera,5/18/2017,14:40,0.0014,,0.0224,,
SF,I61,1,Trichoptera,5/16/2017,11:55,0.0009,8,,,
SF,I62,20,Diptera,5/16/2017,11:55,0.0011,,,,
SF,I63,1,Plecoptera,5/16/2017,11:55,0.0004,6,,,
SF,I64,1,Coleoptera,5/18/2017,13:50,0.0003,2,,,
SF,I65,13,Diptera,5/18/2017,13:50,,,0.0027,,
RB,I66,2,Diptera,5/16/2017,16:05,0.0001,,,,
RB,I67,1,Ephemeroptera,5/16/2017,16:05,0.0003,5,,,
RB,I68,1,Coleoptera,5/18/2017,17:20,0.0003,2,,,
RB,I69,6,Diptera,5/18/2017,17:20,0.0002,,0.0009,,
BF,I70,49,Diptera,5/16/2017,14:40,0.0028,,,,
BF,I71,1,Trichoptera,5/16/2017,14:40,0.0008,4,,,
BF,I72,1,Trichoptera,5/16/2017,14:40,0.0007,4,,,
BF,I73,1,Diptera,5/16/2017,14:40,0.0004,5,,,
BF,I74,1,Coleoptera,5/18/2017,14:00,0.0007,2,,,
BF,I75,1,Coleoptera,5/18/2017,14:00,0.0006,3,,,
BF,I76a,58,Diptera,5/18/2017,14:00,0.0032,,,,
BF,I76b,1,Araneidae,5/18/2017,14:00,0.0002,2,0.0094,,
MR14,I77,1,Coleoptera,5/16/2017,,0.0006,3,,,
MR14,I78,1,Coleoptera,5/16/2017,,0.0005,3,,,
MR14,I79,1,Coleoptera,5/16/2017,,0.0006,3,,,
MR14,I80,1,Lepidotera,5/16/2017,,0.0009,5,,,
MR14,I81,1,Diptera,5/16/2017,,0.0009,5,,,
MR14,I82,1,Diptera,5/16/2017,,0.0009,5,,,
MR14,I83,1,Diptera,5/16/2017,,0.0007,4,,,
MR14,I84,1,Diptera,5/16/2017,,0.0012,4,,,
MR14,I85,1,Diptera,5/16/2017,,0.0006,4,,,
MR14,I86,1,Diptera,5/16/2017,,0.0008,4,,,
MR14,I87,1,Diptera,5/16/2017,,0.0007,4,,,
MR14,I88,1,Diptera,5/16/2017,,0.0004,4,,,
MR14,I89,1,Diptera,5/16/2017,,0.0003,3,,,
MR14,I90,1,Diptera,5/16/2017,,0.0003,3,,,
MR14,I91,1,Diptera,5/16/2017,,0.0004,3,,,
MR14,I92,8,Diptera,5/16/2017,,0.0002,,,,
MR14,I93,3,Coleoptera,5/18/2017,15:10,0.0017,3,,,
MR14,I94,1,Coleoptera,5/18/2017,15:10,0.0001,2,,,
MR14,I95,1,Diptera,5/18/2017,15:10,0.0029,9,,,
MR14,I96,1,Diptera,5/18/2017,15:10,0.0006,5,,,
MR14,I97,1,Hymenoptera,5/18/2017,15:10,0.0004,5,,,
MR14,I98,1,Diptera,5/18/2017,15:10,0.0002,3,,,
MR14,I99,4,Diptera,5/18/2017,15:10,0.0002,,0.0161,,
