site,trap_id,method,vial_num,indiv_num,mass_g,order,family,subfamily_genus_notes
RB,A,floating,1,1,0.001,Ephemeroptera,Ephemerellidae,
RB,A,floating,2,1,0.0004,Plecoptera,Taeniopterygidae,
RB,A,floating,3,2,0.0003,Diptera,Chironomidae,
RB,B,floating,5,1,,Coleoptera,Curculionidae,
RB,B,floating,6,1,0.0006,Ephemeroptera,Ephemerellidae,
LB,C,floating,7,9,0.0247,Trichoptera,Hydropsychidae,
LB,C,floating,8,1,0.0001,Diptera,Dolichopodidae,
LB,C,floating,4,1,0.0002,Diptera,Empididae,
LB,C,floating,31,23,0.0025,Diptera,Chironomidae,
LB,C,floating,9,2,,Coleoptera,Curculionidae,Scotylinae
MR7,B,floating,10,1,,Ephemeroptera,Ameletidae,
MR7,B,floating,11,1,0.0014,Plecoptera,Perlidae,
MR7,B,floating,12,3,0.0043,Trichoptera,Hydropsychidae,
MR7,B,floating,13,23,0.0115,Trichoptera,Hydropsychidae,
MR7,B,floating,14,2,,Coleoptera,Curculionidae,Scotylinae
MR7,B,floating,15,2,0,Diptera,Chironomidae,
MR7,B,floating,16,2,0.0001,Diptera,Empididae,
MR7,B,floating,17,330,0.0201,Diptera,Chironomidae,
MR7,B,floating,18,3,0.0002,Diptera,Ceraptopogonidae,
MR7,B,floating,19,2,,Hemiptera,Aphidoidea,winged
MR7,B,floating,20,1,0.0001,Diptera,Culicidae,
MR7,B,floating,21,2,0.0002,Diptera,Simuliidae,
MR7,C,floating,22,1,,Coleoptera,Cantharidae,
MR7,C,floating,23,2,,Hemiptera,Cicadellidae,
MR7,C,floating,24,2,0.0199,Odonata,Calopterygidae,
MR7,C,floating,25,513,0.0676,Diptera,Chironomidae,
MR7,C,floating,12,1,0.0014,Trichoptera,Hydropsychidae,
MR7,C,floating,14,1,,Coleoptera,Curculionidae,Scotylinae
MR7,C,floating,11,1,0.0014,Plecoptera,Perlidae,
MR7,A,floating,12,29,0.0418,Trichoptera,Hydropsychidae,
MR7,A,floating,26,4,0.0043,Trichoptera,Hydroptilidae,
MR7,A,floating,27,388,0.0202,Diptera,Chironomidae,
MR7,A,floating,28,1,0.0009,Ephemeroptera,unidentifiable,
MR7,A,floating,29,1,0.0005,Ephemeroptera,Ephemerellidae,
MR7,A,floating,30,1,0.0019,Plecoptera,Perlidae,
MR7,C,floating,32,6,0.0029,Diptera,Dolichopodidae,
MR7,C,floating,33,1,,Coleoptera,Curculionidae,
MR7,C,floating,34,3,0.0012,Diptera,Empididae,
MR7,C,floating,35,1,,Hymenoptera,Halictidae,Lassioglossum
MR7,C,floating,36,6,0.0018,Trichoptera,Hydropsychidae,
MR7,C,floating,37,3,0.0011,Ephemeroptera,Baetidae,
MR7,C,floating,38,2,0.0044,Ephemeroptera,Heptageniidae,
LB,A,floating,39,41,0.0545,Trichoptera,Hydropsychidae,
LB,A,floating,40,1,,Coleoptera,Curculionidae,
LB,A,floating,41,2,0.0021,Trichoptera,Goeridae,
LB,A,floating,42,1,,Coleoptera,Elateridae,
LB,A,floating,43,1,,Collembola,Tomoceridae,
LB,B,floating,44,8,0.0015,Diptera,Simuliidae,
LB,B,floating,45,6,,Coleoptera,Curculionidae,Scotylinae
LB,B,floating,46,251,0.0076,Diptera,Chironomidae,
LB,B,floating,47,7,0.0071,Trichoptera,Hydropsychidae,
LB,B,floating,48,1,0.0002,Plecoptera,Nemouridae,
LB,B,floating,49,1,0.0002,Diptera,Empididae,
LB,B,floating,50,2,0.0001,Diptera,Dolichopodidae,
LB,B,floating,51,1,,Hemiptera,Aphidoidea,winged
RB,C,floating,52,2,0.0011,Ephemeroptera,Leptophlebiidae,
RB,C,floating,53,1,0.0002,Diptera,Dolichopodidae,
RB,C,floating,54,1,0.0007,Plecoptera,Taeniopterygidae,
RB,C,floating,55,4,,Collembola,Tomoceridae,
RB,C,floating,56,1,0.0012,Coleoptera,Hydrophilidae,
RB,C,floating,57,1,0.0017,Ephemeroptera,Leptophlebiidae,
RB,C,floating,58,11,0.001,Diptera,Chironomidae,
RB,B,floating,59,1,0.0004,Trichoptera,unidentifiable,
RB,B,floating,60,1,0.0001,Diptera,Dixidae,
RB,B,floating,61,56,0.0043,Diptera,Chironomidae,
MR14,B,floating,62,2,0.009,Plecoptera,Perlidae,
MR14,B,floating,63,2,0.0015,Trichoptera,Hydropsychidae,
MR14,B,floating,64,3,0.001,Diptera,Dolichopodidae,
MR14,B,floating,65,1,,Hemiptera,Pentatomidae,
MR14,B,floating,66,1,0.0001,Hymenoptera,Diapriidae,
MR14,B,floating,67,1,0.0003,Diptera,Empididae,
MR14,B,floating,68,9,,Collembola,Tomoceridae,
MR14,B,floating,69,8,0.001,Diptera,Ceraptopogonidae,
MR14,B,floating,70,51,0.002,Diptera,Chironomidae,
MR14,B,floating,71,1,,Coleoptera,unknown,
MR14,B,floating,72,1,,Coleoptera,Curculionidae,Scotylinae
MR14,B,floating,73,2,0.0005,Diptera,Culicidae,
MR14,C,floating,74,6,0.0117,Plecoptera,Perlidae,
MR14,C,floating,75,2,0.0072,Trichoptera,Hydropsychidae,
MR14,C,floating,76,1,0.0262,Coleoptera,Hydrophilidae,
MR14,C,floating,77,2,0.001,Trichoptera,Hydroptilidae,
MR14,C,floating,78,3,0.0006,Diptera,Empididae,
MR14,C,floating,79,1,0.0001,Diptera,Simuliidae,
MR14,C,floating,80,1,,Collembola,Tomoceridae,
MR14,C,floating,81,51,0.0027,Diptera,Chironomidae,
MR14,C,floating,82,3,0.0001,Diptera,Ceraptopogonidae,
MR14,C,floating,83,1,,Coleoptera,Curculionidae,
MR14,C,floating,84,2,,Coleoptera,Curculionidae,Scotylinae
MR14,C,floating,85,6,0.0017,Plecoptera,Nemouridae,
MR14,C,floating,86,1,0.0025,Coleoptera,Elmidae,Optioservus
MR14,A,floating,87,167,0.0227,Diptera,Empididae,
MR14,A,floating,88,11,0.0364,Plecoptera,Perlidae,
MR14,A,floating,89,146,0.0071,Diptera,Chironomidae,
MR14,A,floating,90,6,0.0026,Diptera,Dolichopodidae,
MR14,A,floating,91,3,,Collembola,Tomoceridae,
MR14,A,floating,92,218,0.0355,Diptera,Empididae,
MR14,A,floating,93,136,0.0204,Diptera,Empididae,
MR14,A,floating,94,241,0.0378,Diptera,Empididae,
MR14,A,floating,95,7,0.0004,Diptera,Ceraptopogonidae,
MR14,A,floating,96,1,,Coleoptera,Buprestidae,
MR14,A,floating,97,1,,Coleoptera,Chrysomelidae,Cassinidi
MR14,A,floating,98,1,0.0002,Trichoptera,Hydropsychidae,
eDNA_26,A,floating,99,2,0.0125,Ephemeroptera,Heptageniidae,
eDNA_26,A,floating,100,9,0.0056,Ephemeroptera,Baetidae,
eDNA_26,A,floating,101,91,0.0023,Diptera,Chironomidae,
eDNA_26,A,floating,102,1,0.0002,Diptera,Empididae,
eDNA_26,A,floating,103,2,0.0001,Diptera,Ceraptopogonidae,
eDNA_26,A,floating,104,2,0.0007,Diptera,Dixidae,
eDNA_26,A,floating,105,2,0.001,Trichoptera,Hydropsychidae,
eDNA_26,B,floating,106,3,,Coleoptera,Curculionidae,Scotylinae
eDNA_26,B,floating,107,2,0.0004,Ephemeroptera,Baetidae,
eDNA_26,B,floating,108,2,0.0001,Diptera,Ceraptopogonidae,
eDNA_26,B,floating,109,125,0.0012,Diptera,Chironomidae,
eDNA_26,B,floating,110,3,0.0019,Diptera,Empididae,
eDNA_26,C,floating,111,1,0.0011,Diptera,Empididae,
eDNA_26,C,floating,112,2,,Coleoptera,Curculionidae,Scotylinae
eDNA_26,C,floating,113,43,0.0018,Diptera,Chironomidae,
MB,A,floating,114,8,,Coleoptera,Curculionidae,Scotylinae
MB,A,floating,115,15,0.012,Trichoptera,Leptoceridae,
MB,A,floating,116,1,0.001,Trichoptera,Hydropsychidae,
MB,A,floating,117,4,0.0009,Diptera,Simuliidae,
MB,A,floating,118,1,0,Diptera,Empididae,
MB,A,floating,119,12,0.0007,Diptera,Ceraptopogonidae,
MB,A,floating,120,952,0.0602,Diptera,Chironomidae,
MB,B,floating,121,1,0.0132,Odonata,Calopterygidae,
MB,B,floating,122,1,0.0182,Odonata,Gomphidae,
MB,B,floating,123,2,0.0077,Trichoptera,Hydropsychidae,
MB,B,floating,124,6,,Coleoptera,Curculionidae,Scotylinae
MB,B,floating,125,1,,Orthoptera,Acrididae,
MB,B,floating,126,1,0.0002,Diptera,Simuliidae,
MB,B,floating,127,10,0.0014,Diptera,Ceraptopogonidae,
MB,B,floating,128,207,0.0111,Diptera,Chironomidae,
MB,B,floating,129,3,0.0033,Plecoptera,Perlidae,
MB,C,floating,130,3,0.0075,Plecoptera,Perlidae,
MB,C,floating,131,86,0.051,Diptera,Chironomidae,
MB,C,floating,132,6,0.0005,Diptera,Ceraptopogonidae,
MB,C,floating,133,6,0.0107,Trichoptera,Hydropsychidae,
MB,C,floating,134,5,0.0006,Trichoptera,Hydroptilidae,
MB,C,floating,135,2,,Hemiptera,Aphidoidea,winged
MB,C,floating,136,1,0.0018,Coleoptera,Elmidae,
ST,A,floating,137,10,0.0042,Diptera,Simuliidae,
ST,A,floating,138,6,0.0007,Diptera,Ceraptopogonidae,
ST,A,floating,139,205,0.0175,Diptera,Chironomidae,
ST,A,floating,140,23,0.044,Trichoptera,Hydropsychidae,
ST,A,floating,141,2,0.0006,Diptera,Empididae,
ST,A,floating,142,1,,Hymenoptera,Diapriidae,too small for vial
ST,B,floating,143,9,0.0127,Trichoptera,Hydropsychidae,
ST,B,floating,144,1,0.0007,Unknown,unknown_4,
ST,B,floating,145,1,0.0004,Diptera,Simuliidae,
ST,B,floating,146,1,,Hemiptera,Aphidoidea,winged
ST,B,floating,147,2,0.0001,Diptera,Ceraptopogonidae,
ST,B,floating,148,2,0.0005,Diptera,Empididae,
ST,B,floating,149,23,0.0032,Diptera,Chironomidae,
ST,B,floating,150,1,0.0006,Coleoptera,Psephenidae,
ST,C,floating,151,2,0.0009,Diptera,Empididae,
ST,C,floating,152,3,0.001,Diptera,Simuliidae,
ST,C,floating,153,209,0.0183,Diptera,Chironomidae,
ST,C,floating,154,4,0.0124,Trichoptera,Hydropsychidae,
ST,C,floating,155,1,,Hymenoptera,Diapriidae,too small for vial
HC,A,floating,156,3,,Coleoptera,Curculionidae,Scotylinae
HC,A,floating,157,2,0.0001,Diptera,Empididae,
HC,A,floating,158,1,,Hemiptera,Cicadellidae,
HC,A,floating,159,2,,Collembola,Tomoceridae,
HC,A,floating,160,1,,Hemiptera,Aphidoidea,winged
HC,A,floating,161,1,0.0003,Hemiptera,Veliidae,
HC,A,floating,162,35,0.0008,Diptera,Chironomidae,
HC,B,floating,163,34,0.0008,Diptera,Chironomidae,
HC,B,floating,164,2,0.0001,Diptera,Ceraptopogonidae,
HC,B,floating,165,3,0.0005,Diptera,Empididae,
HC,B,floating,166,2,0.001,Diptera,Dolichopodidae,
HC,B,floating,167,2,,Collembola,Tomoceridae,
HC,B,floating,168,1,,Coleoptera,Curculionidae,Scotylinae
HC,B,floating,169,2,0.0008,Coleoptera,Staphylinidae,
HC,B,floating,170,1,0.0246,Coleoptera,Psephenidae,
HC,C,floating,171,1,0.0002,Trichoptera,Hydroptilidae,
HC,C,floating,172,1,0.0001,Diptera,Ceraptopogonidae,
HC,C,floating,173,5,0.0001,Diptera,Chironomidae,
HC,C,floating,174,1,0.0003,Plecoptera,Nemouridae,
SpringBranch,A,floating,175,1,0.0045,Hemiptera,Gerridae,
SpringBranch,A,floating,176,1,0.0005,Trichoptera,Hydroptilidae,
SpringBranch,A,floating,177,2,,Hemiptera,Aphidoidea,
SpringBranch,A,floating,178,11,0.0007,Diptera,Chironomidae,
SpringBranch,A,floating,179,13,0.0011,Diptera,Dixidae,
SpringBranch,A,floating,180,3,0.0005,Ephemeroptera,Ephemerellidae,
SpringBranch,A,floating,181,1,0.0003,Ephemeroptera,unidentifiable,
SpringBranch,A,floating,182,1,,Hemiptera,Homopteran,
SpringBranch,A,floating,183,1,0.0043,Trichoptera,Hydropsychidae,
SpringBranch,B,floating,184,1,0.0003,Coleoptera,Staphylinidae,
SpringBranch,B,floating,185,35,,Coleoptera,Curculionidae,Scotylinae
SpringBranch,B,floating,186,1,,Coleoptera,Curculionidae,
SpringBranch,B,floating,187,2,0.0002,Hemiptera,Aphidoidea,winged
SpringBranch,B,floating,188,3,0.0001,Diptera,Chironomidae,
SpringBranch,C,floating,189,20,0.0104,Ephemeroptera,Ephemerellidae,
SpringBranch,C,floating,190,9,,Coleoptera,Curculionidae,Scotylinae
SpringBranch,C,floating,191,6,0.0028,Trichoptera,Hydropsychidae,
SpringBranch,C,floating,192,17,0.0028,Diptera,Dixidae,
SpringBranch,C,floating,193,1,0.0002,Trichoptera,Hydroptilidae,
SpringBranch,C,floating,194,2,0.0002,Diptera,Simuliidae,
SpringBranch,C,floating,195,1,,Collembola,Tomoceridae,
SpringBranch,C,floating,196,104,0.004,Diptera,Chironomidae,
SpringBranch,C,floating,197,8,0.0026,Diptera,Tipulidae,
SpringBranch,C,floating,198,1,0.0003,Hemiptera,Veliidae,
SpringBranch,C,floating,199,8,0.0015,Diptera,Ceraptopogonidae,
SpringBranch,C,floating,200,1,0.0001,Coleoptera,Staphylinidae,
SpringBranch,C,floating,201,1,0.0001,Diptera,Psychodidae,
SpringBranch,C,floating,202,1,0.0002,Plecoptera,Nemouridae,
SpringBranch,C,floating,203,1,,Diptera,Cecidomyiidae,
Stanley,A ,floating,204,2,,Coleoptera,Curculionidae,Scotylinae
Stanley,A ,floating,205,1,0,Diptera,Dolichopodidae,
Stanley,A ,floating,206,2,0.0001,Diptera,Ceraptopogonidae,
Stanley,A ,floating,207,1,,Collembola,Onychiuridae,
Stanley,A ,floating,,1,,Hemiptera,Aphidoidea,winged
Stanley,A ,floating,,,,Hemiptera,Homopteran,
Stanley,A ,floating,208,39,0.0022,Diptera,Chironomidae,
Stanley,B,floating,209,1,0.0001,Diptera,Ceraptopogonidae,
Stanley,B,floating,210,53,0.0013,Diptera,Chironomidae,
Stanley,B,floating,,1,,Hemiptera,Aphidoidea,
Stanley,B,floating,211,2,0.0006,Plecoptera,Nemouridae,
Stanley,C,floating,212,2,0.0017,Diptera,Tipulidae,
Stanley,C,floating,213,1,0.0002,Hemiptera,Veliidae,
Stanley,C,floating,214,203,0.0076,Diptera,Chironomidae,
Stanley,C,floating,215,1,,Coleoptera,Curculionidae,Scotylinae
Stanley,C,floating,216,1,,Hemiptera,Aphidoidea,winged
Stanley,C,floating,217,1,,Hemiptera,Tingidae,
Stanley,C,floating,,2,,Hemiptera,Aphidoidea,
Stanley,C,floating,218,2,,Collembola,Tomoceridae,
Stanley,C,floating,,4,,Collembola,Hypogastruidae,too small for vial
BF,A,floating,219,1,,Coleoptera,Curculionidae,Scotylinae
BF,A,floating,220,6,0.0083,Trichoptera,Hydropsychidae,
BF,A,floating,221,7,0.0014,Diptera,Dixidae,
BF,A,floating,222,1,0,Diptera,Ceraptopogonidae,
BF,A,floating,,1,,Hemiptera,Homopteran,
BF,A,floating,223,1,0.0001,Diptera,Empididae,
BF,A,floating,224,43,0.0025,Diptera,Chironomidae,
BF,B,floating,225,6,,Collembola,Tomoceridae,
BF,B,floating,226,1,0.0015,Trichoptera,Hydropsychidae,
BF,B,floating,227,2,0.0001,Diptera,Ceraptopogonidae,
BF,B,floating,,1,,Hemiptera,Aphidoidea,winged
BF,B,floating,228,11,,Coleoptera,Curculionidae,Scotylinae
BF,B,floating,229,2,0.0002,Diptera,Empididae,
BF,B,floating,230,1,0.0002,Diptera,Dixidae,
BF,B,floating,231,,0.0001,Unknown,unknown_3,
BF,B,floating,232,96,0.0046,Diptera,Chironomidae,
BF,B,floating,233,1,,Coleoptera,Scarabaeidae,
BF,C,floating,234,1,,Collembola,Tomoceridae,
BF,C,floating,235,3,0.0032,Trichoptera,Hydropsychidae,
BF,C,floating,236,,,Hemiptera,Aphidoidea,winged
BF,C,floating,237,14,0.0022,Diptera,Dixidae,
BF,C,floating,238,155,0.0043,Diptera,Chironomidae,
BF,C,floating,,2,,Collembola,Hypogastruidae,too small for vial
SF,A,floating,239,3,,Collembola,Tomoceridae,
SF,A,floating,240,3,0.0024,Trichoptera,Hydropsychidae,
SF,A,floating,241,1,,Coleoptera,Curculionidae,Scotylinae
SF,A,floating,242,1,,Coleoptera,Curculionidae,
SF,A,floating,243,1,0.0006,Plecoptera,Nemouridae,
SF,A,floating,244,3,0.0004,Diptera,Dixidae,
SF,A,floating,245,35,0.0011,Diptera,Chironomidae,
SF,B,floating,246,4,,Collembola,Tomoceridae,
SF,B,floating,247,1,0.0002,Plecoptera,Nemouridae,
SF,B,floating,248,1,,Coleoptera,Curculionidae,Scotylinae
SF,B,floating,249,5,0.0001,Diptera,Chironomidae,
SF,C,floating,250,1,0.001,Trichoptera,Hydropsychidae,
SF,C,floating,251,1,0.0001,Diptera,Dixidae,
SF,C,floating,252,3,0.0002,Diptera,Empididae,
SF,C,floating,253,1,,Hemiptera,Aphidoidea,winged
SF,C,floating,254,3,,Coleoptera,Curculionidae,Scotylinae
SF,C,floating,255,1,0,Diptera,Phoridae,
SF,C,floating,256,7,,Collembola,Tomoceridae,
SF,C,floating,257,34,0.0008,Diptera,Chironomidae,
SF,C,floating,258,1,0.0008,Coleoptera,Hydrophilidae,
LF,A,floating,259,1,0.0014,Plecoptera,Perlidae,
LF,A,floating,260,2,0.0007,Diptera,Dolichopodidae,
LF,A,floating,261,2,0.0005,Plecoptera,Nemouridae,
LF,A,floating,262,2,,Collembola,Tomoceridae,
LF,A,floating,263,12,0.0012,Diptera,Ceraptopogonidae,
LF,A,floating,264,1,0.0003,Diptera,Culicidae,
LF,A,floating,265,4,,Coleoptera,Curculionidae,Scotylinae
LF,A,floating,266,86,0.0054,Diptera,Chironomidae,
LF,A,floating,267,8,0.0032,Ephemeroptera,Leptophlebiidae,
LF,A,floating,268,3,0.0008,Ephemeroptera,Ephemerellidae,
LF,A,floating,269,1,0.0003,Ephemeroptera,Baetidae,
LF,A,floating,,2,,Hemiptera,Aphidoidea,winged
LF,B,floating,270,4,0.1173,Odonata,Calopterygidae,
LF,B,floating,271,1,0.0056,Ephemeroptera,Ameletidae,
LF,B,floating,272,2,,Hemiptera,Aphidoidea,winged
LF,B,floating,273,61,0.0317,Diptera,Dolichopodidae,
LF,B,floating,274,1,0.0002,Diptera,Empididae,
LF,B,floating,275,1,0.0005,Hemiptera,Hydrometridae,
LF,B,floating,276,1,,Coleoptera,Curculionidae,
LF,B,floating,277,4,,Coleoptera,Curculionidae,Scotylinae
LF,B,floating,278,1,0.0014,Plecoptera,Perlidae,
LF,B,floating,279,1,0.0002,Trichoptera,Hydroptilidae,
LF,B,floating,280,1,0.0003,Plecoptera,Leuctridae,
LF,B,floating,281,6,0.0034,Ephemeroptera,Leptophlebiidae,
LF,B,floating,282,5,0.0039,Ephemeroptera,Ephemerellidae,
LF,B,floating,283,5,0.0002,Diptera,Psychodidae,
LF,B,floating,284,295,0.0157,Diptera,Chironomidae,
LF,B,floating,286,2,,Coleoptera,Elateridae,
LF,B,floating,287,1,0.0006,Coleoptera,unknown,
LF,B,floating,288,1,0.0006,Hymenoptera,Ichneumonidae,
LF,B,floating,289,42,0.002,Diptera,Ceraptopogonidae,
LF,C,floating,290,1,0.0007,Hemiptera,Hydrometridae,
LF,C,floating,291,2,0.0006,Diptera,Empididae,
LF,C,floating,292,1,0.0001,Diptera,Psychodidae,
LF,C,floating,293,133,0.0078,Diptera,Chironomidae,
LF,C,floating,294,47,0.0195,Diptera,Dolichopodidae,
LF,C,floating,295,29,0.0024,Diptera,Ceraptopogonidae,
LF,C,floating,296,3,,Coleoptera,Curculionidae,Scotylinae
LF,C,floating,297,3,0.0037,Hymenoptera,Ichneumonidae,
LF,C,floating,298,10,0.0032,Ephemeroptera,Ephemerellidae,
LF,C,floating,299,4,0.0018,Ephemeroptera,Leptophlebiidae,
LF,C,floating,300,3,0.0011,Ephemeroptera,Baetidae,
LF,C,floating,301,1,,Coleoptera,Curculionidae,
LF,C,floating,302,1,0.0004,Coleoptera,Scirtidae,
LF,C,floating,303,1,0.0002,Diptera,Tipulidae,
LF,C,floating,304,1,0.0001,Diptera,Tanyderidae,
LF,C,floating,,1,,Diptera,Cecidomyiidae,
LF,C,floating,305,1,0.0439,Odonata,Gomphidae,
MR2,A,floating,306,27,,Coleoptera,Curculionidae,Scotylinae
MR2,A,floating,307,107,0.0099,Diptera,Chironomidae,
MR2,A,floating,308,12,,Collembola,Tomoceridae,
MR2,A,floating,309,1,0.0001,Coleoptera,Psephenidae,
MR2,B,floating,310,20,0.006,Ephemeroptera,Ephemerellidae,
MR2,B,floating,311,1,0.0065,Ephemeroptera,Heptageniidae,
MR2,B,floating,312,994,0.0869,Diptera,Chironomidae,
MR2,B,floating,313,854,0.0789,Diptera,Chironomidae,
MR2,B,floating,314,2,0.0005,Plecoptera,Nemouridae,
MR2,B,floating,315,1,0.0004,Plecoptera,Leuctridae,
MR2,B,floating,316,1,0.0002,Diptera,Canacidae,
MR2,B,floating,317,24,,Coleoptera,Curculionidae,Scotylinae
MR2,B,floating,318,5,0.0001,Diptera,Ceraptopogonidae,
MR2,B,floating,319,3,,Collembola,Tomoceridae,
MR2,B,floating,320,,,Hemiptera,Aphidoidea,winged
MR2,C,floating,321,1,0.0001,Diptera,Empididae,
MR2,C,floating,322,420,0.0321,Diptera,Chironomidae,
MR2,C,floating,323,10,0.0023,Ephemeroptera,Ephemerellidae,
MR2,C,floating,324,1,0.0009,Trichoptera,Leptoceridae,
MR2,C,floating,325,1,0.0005,Plecoptera,Nemouridae,
MR2,C,floating,326,4,0.0035,Trichoptera,Hydropsychidae,
MR2,C,floating,327,1,,Coleoptera,Curculionidae,Scotylinae
MR2,C,floating,,3,,Collembola,Tomoceridae,
MR2,C,floating,328,2,0.0001,Diptera,Ceraptopogonidae,
MR7,C,floating,329,1,0.0011,Trichoptera,Polycentropodidae,
MR7,C,floating,330,1,0.0012,Trichoptera,Goeridae,
MR7,C,floating,331,2,0.0004,Plecoptera,Nemouridae,
MR7,C,floating,332,2,0,Diptera,Culicidae,
MR7,C,floating,333,6,0.0001,Diptera,Ceraptopogonidae,
MR7,C,floating,334,2,0.0006,Trichoptera,Hydropsychidae,
eDNA_26,A,floating,335,1,0.0038,Trichoptera,Polycentropodidae,
MR14,A,floating,336,2,0.0015,Ephemeroptera,Baetidae,
eDNA_26,A,floating,337,1,0.0007,Trichoptera,Hydropsychidae,
MR14,B,floating,338,1,0.0011,Coleoptera,Elmidae,
eDNA_26,C,floating,339,3,0.0037,Trichoptera,Hydropsychidae,
MR14,B,floating,340,4,0.0007,Diptera,Empididae,
MR14,B,floating,341,3,0.0006,Diptera,Tipulidae,
MR14,B,floating,342,1,,Hemiptera,Aphidoidea,winged
MR14,B,floating,343,6,0.0007,Diptera,Ceraptopogonidae,
eDNA_26,C,floating,344,3,0.0015,Ephemeroptera,Ephemerellidae,
LB,A,floating,345,4,0.0009,Diptera,Simuliidae,
LB,A,floating,,1,,Coleoptera,Curculionidae,Scotylinae
LB,A,floating,346,5,0.0008,Diptera,Empididae,
LB,A,floating,347,3,0.0001,Diptera,Ceraptopogonidae,
LB,A,floating,348,137,0.0078,Diptera,Chironomidae,
eDNA_26,C,floating,349,1,0.0003,Hemiptera,Veliidae,
eDNA_26,B,floating,350,3,0.0017,Ephemeroptera,Leptophlebiidae,
