sample_id,se_ug_g
QC001,32.7
QC002,32.1
QC003,32.5
HC_CF,3.37
Stan_CF,2.69
MR6_CF,2.50
MR7_caly,17.8
LB_CF,2.84
SB_CF,2.62
MR14_EI,24.8
MR2_EI,13.1
MR5_CF,3.01
QC004,32.0
SF_CF,2.22
MR7_CF,18.8
eDNA_20_CF,2.39
LF_chiro,5.14
LF_caly,4.86
ST_EI,51.5
eDNA_9_CF,1.14
LF_CF,2.71
SB_EI,5.72
LB_EI,50.4
HC_EI,4.94
eDNA_26_EI,2.52
MR7_all,25.6
BF_CF,3.31
RB_EI,4.76
BF_EI,37.4
LF_all,12.4
MB_EI,95.0
QC006,32.3
eDNA_26_CF,4.33
MR2_CF,2.59
eDNA_28_CF,1.10
Stan_EI,37.7
MR9_CF,1.96
SF_EI,6.32
RB_CF,2.19
MR7_chiro,34.3
MR11_CF,2.55
QC007,33.0
