site,rep,se_ug_g
eDNA_20,1,9.77
MR5,1,14.9
eDNA_57,1,16.4
MR9,1,12.1
eDNA_9,1,11.9
LB,1,19.7
Stanley,1,22.9
SF,1,4.64
SpringBranch,1,3.19
RB,1,7.11
eDNA_26,1,1.96
LF,1,28.7
BF,2,9.43
eDNA_28,1,1.45
BF,1,9.24
MR2,1,5.78
eDNA_17,1,13.9
MR6,1,13.3
MR11,1,15.1
eDNA_28,2,3.56
MR11,3,15.1
MR11,2,12.2
MR7,1,10.3
HC,1,16.9
BF,3,9.69
