site,spider_tot_mass
eDNA_28,0.0919
LF,0.7223
Stanley,0.6077
SpringBranch,0.2722
eDNA_17,0.7376
eDNA_9,0.5226
LB2,0.4253
MR9,0.5435
HC,0.1926
MR6,0.6162
MR2,0.9296
MR5,0.2963
RB,0.3568
SF,0.4079
eDNA_20,0.6224
eDNA_26,0.2039
eDNA_57,0.7908
MR7,0.3982
BF,0.5826
MR11,0.7173
