site,count,density,segment_num,left/right,notes,shrub,overhanging branches,roots,large-leaf cover,small-leaf cover,grass,moss,sand/rocks/dead leaves,total
LB,27,4.32,1,R,"over-hanging root structure large fern with overhanging branches, >2m high bank, bottom 1.5m little veg",0,0,0.4,0.2,0,0,0,0.4,1
LB,6,0.96,2,R,"large branch structure, exposed bank, small overhanging leaves >2m",0,0.2,0,0,0.5,0,0,0.3,1
LB,3,0.48,3,R,densely veg small leaves large root strucutre end of transect,0,0,0.2,0,0.8,0,0,0,1
LB,3,0.48,4,R,mostly exposed roots,0,0,0.5,0,0,0,0,0.5,1
LB,9,1.44,5,R,dense bushes at beginning rocky trib at the end,0.5,0,0,0,0,0,0,0.5,1
LB,1,0.16,6,R,"low bank, overhanging to trees ",0,0.5,0,0,0,0,0,0.5,1
LB,3,0.48,7,R,trees at beginging and end of transect ,0,0,0.4,0,0,0,0,0.6,1
LB,9,1.44,8,R,low to ground large over hanging ,0,0,0,0,0.5,0,0,0.5,1
SF,9,1.26,1,L,"low to ground bank and small leaf cover, a few dead branch overhanging",0,0.125,0,0,0.875,0,0,0,1
SF,7,0.98,2,L,"low to ground small leaf (fern, poison ivy) cover",0,0,0,0,1,0,0,0,1
SF,0,0,3,L,"mostly moss, some small leaf cover",0,0,0,0,0.5,0,0.5,0,1
SF,5,0.7,4,L,"more grassy overhang, a few overhanging sticks, one large downed tree across transect",0,0.125,0,0,0,0.5,0.375,0,1
SF,3,0.42,5,L,"0.75m bank, 4 overhanging live branches",0,0.25,0,0,0.75,0,0,0,1
SF,2,0.28,6,L,high bank mossy 3 sticks across transect,0,0.2,0,0,0.1,0,0.7,0,1
SF,5,0.7,7,L,high bank mossy small leaves,0,0,0,0,0.5,0,0.5,0,1
RB,7,0.98,1,L,"exposed high bank, some overhang",0,0.1,0,0.4,0.5,0,0,0,1
RB,9,1.26,2,L,"lots of overhang first 1/8, exposed bank with some exposed roots remaining",0,0.125,0.4,0,0,0.475,0,0,1
RB,2,0.28,3,L,"small leaf, root overhang, large log across transect at the end",0,0.1,0,0,0.1,0.8,0,0,1
RB,5,0.7,4,L,"first 7/8 sandy, last 1/8 exposed branches some overhang",0,0.125,0,0,0,0,0,0.875,1
RB,29,4.06,5,L,densely veg exposed trunks,0,0.6,0,0,0,0,0,0.4,1
RB,4,0.56,6,L,"low bank large log, moss cover",0,0.1,0,0,0,0.3,0.6,0,1
RB,2,0.28,7,L,low to ground grass,0,0.1,0,0,0,0.9,0,0,1
ST,22,3.08,1,L,"dense veg, large leaf overhang",0,0.15,0,0.6,0,0,0.25,0,1
ST,7,0.98,2,L,fern and large magnolia,0,0.5,0,0,0.5,0,0,0,1
ST,19,2.66,3,L,"large fir overhang in the middle of the transect, high bank, otherwise small leaf cover",0,0.2,0,0,0.8,0,0,0,1
ST,9,1.26,4,L,"moss high bank, some small leaf cover",0,0,0,0.2,0.3,0,0.5,0,1
ST,15,2.1,5,L,"low banks, grasses, fir overhang",0,0.1,0,0,0.3,0,0.5,0.1,1
ST,3,0.42,6,L,"low bank, small leaf cover, overhanging fir branch",0,0.1,0,0,0.7,0.2,0,0,1
ST,5,0.7,7,L,"large trees, little ground veg, large boulders",0,0,0,0,0,0,0.3,0.7,1
BF,4,0.56,1,R,"tangled exposed roots, some small leaf cover",0,0,0.2,0.1,0,0,0,0.7,1
BF,10,1.4,2,R,"small trees and exposed roots, little veg last half",0,0,0.4,0,0,0,0,0.6,1
BF,0,0,3,R,almost no veg,0,0,0,0,0,0,0,1,1
BF,16,2.24,4,R,"little veg, tangled overhanging dead branches",0,0.3,0,0,0,0,0,0.7,1
BF,10,1.4,5,R,"first half, no veg, second half small leaf and grass cover",0,0,0,0,0.25,0.25,0,0.5,1
BF,5,0.7,6,R,"large leaf cover, small tree 1/4 way",0,0,0.2,0.5,0,0,0,0.3,1
BF,3,0.42,7,R,"small tree, exposed roots, grass and leaf cover",0,0,0.2,0,0.1,0.2,0,0.5,1
MR2,10,1.4,1,L,"protruding bank, grass cover, logs, a tire and other debris",0,0,0,0,0,0.5,0,0.5,1
MR2,4,0.56,2,L,"grass cover throughout, bank slopes more at the end",0,0,0,0,0,0.6,0,0.4,1
MR2,45,6.3,3,L,"higher bank, tangled veg, overhanging and exposed roots",0.5,0,0.2,0,0.2,0,0,0.1,1
MR2,32,4.48,4,L,very dense veg overhang,0.8,0,0,0.2,0,0,0,0,1
MR2,13,1.82,5,L,"highly exposed bank, small leaf cover at the top",0,0,0.2,0,0.8,0,0,0,1
MR2,22,3.08,6,L,"dense veg overhang, protruding dead branches",0.7,0.1,0,0.2,0,0,0,0,1
MR2,15,2.1,7,L,"mostly large logs and exposed roots, some broad leaf overhang",0,0.2,0.7,0.1,0,0,0,0,1
LF,6,0.84,1,R,"grass cover throughout, 3 large trees close to the bank",0,0,0.2,0,0,0.8,0,0,1
LF,9,1.26,2,R,"grass cover first half, bank becomes sand for third quarter, large tree at the end of the transect",0,0,0.2,0,0,0.5,0,0.3,1
LF,11,1.54,3,R,"large tree trunks, grass cover",0,0,0.4,0,0,0.5,0,0.1,1
LF,6,0.84,4,R,"sandy and rocky, intermittent grass cover",0,0,0,0,0,0.3,0,0.7,1
LF,17,2.38,5,R,"high sloped grass cover, 1 overhanigng tree at the end of the transect",0,0,0.2,0,0,0.5,0,0.3,1
LF,9,1.26,6,R,"1/2 grass and large leaf cover, small dead branch overhang",0,0.2,0,0,0.25,0.25,0,0.3,1
LF,17,2.38,7,R,"large tree at beginning of the transect, grass and large leaf dense at the end",0,0,0.3,0,0.3,0.4,0,0,1
MR7,11,1.54,1,R,"overhanging broad leaf trees, exposed roots, some grass and large leaf cover",0,0.6,0.3,0.1,0,0,0,0,1
MR7,11,1.54,2,R,"overhanging live tree branhces at beginning and ending of transect, otherwise grass and broad leaf cover",0,0.5,0,0.2,0.3,0,0,0,1
MR7,27,3.78,3,R,"dead branch and fir overhang, large exposed roots, small leaf cover",0,0.6,0.2,0,0.2,0,0,0,1
MR7,10,1.4,4,R,"rocky, sparse veg, medium tree end of transect",0,0,0.3,0,0,0,0,0.7,1
MR7,0,0,5,R,"large leaf ground cover, some live overhang",0,0,0.2,0,0.8,0,0,0,1
MR7,6,0.84,6,R,"live branch overhang, beginning of transect, interspersed small and large leaf ground cover",0,0.3,0,0.2,0.3,0,0,0.2,1
MR7,7,0.98,7,R,"dense bushes beginning of the transect, ground cover 3/4, last 1/4 tree trunk and sticks",0.2,0,0.4,0,0.4,0,0,0,1
MB,10,1.4,1,R,"dead branch and live brush overhang, dense throughout",0.7,0.3,0,0,0,0,0,0,1
MB,14,1.96,2,R,"dense bushes throughout, mostly small leaf first half, large leaf second half",1,0,0,0,0,0,0,0,1
MB,11,1.54,3,R,"dense bush and grass cover throughout, dead branch overhang",0.6,0.1,0.1,0.2,0,0,0,0,1
MB,3,0.42,4,R,"1/2 dense, small leaf bush, 2/2 large tree some dead branch overhang",0.5,0.1,0.3,0,0,0.1,0,0,1
MB,3,0.42,5,R,"1/4 tangled dead branches and roots, 2/4 high bank broad leaf, 2/2 some small leaf overhang exposed branches",0,0.1,0.2,0.4,0.3,0,0,0,1
MB,11,1.54,6,R,"1/3 knotted exposed roots, high bank 2/3-3/3 large leaf bush",0.3,0,0.3,0.4,0,0,0,0,1
MB,8,1.12,7,R,"small leaf overhang from bush 1/3, 2/3 rocky some grass, 3/3 small leaf bush",0.7,0,0,0,0,0.1,0,0.2,1
MR14,3,0.42,1,R,"sandy, interspersed veg withing first meter from water",0,0,0,0,0,0.3,0,0.7,1
MR14,5,0.7,2,R,"grass cover throughout, small leaf tree near the end of the transect",0,0.1,0,0,0.3,0.6,0,0,1
MR14,3,0.42,3,R,"rocky 2/2, grass cover throughout",0,0,0,0,0,0.5,0.5,0,1
MR14,5,0.7,4,R,"grass cover 1/8 and 8/8, muddy track marks, interspersed grass between",0,0,0,0,0,0.4,0.6,0,1
MR14,3,0.42,5,R,"grass cover, small bush end of transect",0,0,0,0,0.1,0.9,0,0,1
MR14,10,1.4,6,R,"grass cover throughout, log at beginnging of transect, 1 live and 1 dead branch overhang",0,0.2,0,0,0.25,0.3,0,0.25,1
MR14,5,0.7,7,R,"grass small leaf cover, 1 live tree overhang",0,0,0,0.5,0,0.5,0,0,1
