Site,Site_Type,TOC_mg_L,TN_mg_L,Sulfate_mg_L,Nitrate_mg_L,Chloride_mg_L,THg_ng_L_filt,THg_ng_L_unfilt,MeHg_ng_L_filt,MeHg_ng_L_unfilt,Percent_MeHg_filt,Percent_MeHg_unfilt,pH,Temp,Site1,Site2,Se_Conc_ug_g_filt,Se_Conc_ug_g_unfilt
BF,mined,3.431,2.131,6.59751591,2.3974004,3.06678384,0.391536185,0.609235848,0.06778818,0.04074443,17.31338819,6.687792664,7.62,67.3,mined,stream,8.36,14.3
hunting_pond,unmined_pond,2.379,0.136,10.2327216,0.01840627,0.7376975,0.313438551,0,0.065861032,0.116642668,21.01242214,,6.2,73,unmined,pond,<1.0,4.72
LB,mined_strpond,3.292,2.186,9.53813963,2.46335591,3.60281598,0.235434463,0.259592641,0.049189754,0.034341207,20.89318332,13.22888293,7.78,77.9,mined,stream,27.8,39.1
LB_pond,mined_pond,3.656,2.19,9.69297628,2.52707564,3.59339538,0.234813861,0.358195852,0.046079145,0.039281607,19.62369027,10.96651653,7.54,78.9,mined,pond,34.5,35.1
LF,unmined,2.201,0.2795,11.4048471,0.20869599,2.73455068,0.524960862,2.027970097,0.098513167,0.204084334,18.76581167,10.06347847,7.5,74.4,unmined,stream,2.29,7.71
MB,mined_strpond,3.61,7.507,8.50052197,,4.7838452,0.14820288,0.160269782,0.075137568,0.05367231,50.6991284,33.48872731,7.67,65.3,mined,stream,52.6,60.5
MB_pond,mined_pond,4.466,7.294,8.46573675,,4.87773718,0.12200816,0.370149776,0.064543492,0.055569435,52.90096348,15.01268908,7.42,65,mined,pond,57.7,70.8
MR14,mined,3.138,2.405,9.93350335,2.76406832,3.53592972,0.211972652,1.102299298,0.045768783,0.082440542,21.59183371,7.478961693,7.57,68.1,mined,stream,22.2,28.6
MR2,unmined,1.938,0.3515,14.5786023,0.3317881,3.66876018,0.445076579,0.659528367,0.066876012,0.089038546,15.02573153,13.50033613,7.79,70.8,unmined,stream,<1.0,8.98
MR7,mined,3.245,0.752,6.30523522,0.82316286,2.94305996,0.247300267,0.676568862,0.054851189,0.062096672,22.17999601,9.178174752,7.93,71.7,mined,stream,6.45,13.6
outlet,mined,3.633,0.5743,12.30186778,0.56269449,1.79688696,0.971951392,2.24921582,0.051717537,0.085064376,5.321000314,3.781957058,7.64,67.8,mined,stream,6.9,13.4
RB,unmined_strpond,6.474,0.1678,12.18583475,0.09355332,0.7533985,1.082550524,3.518071853,0.058151467,0.067461202,5.371709304,1.917561797,6.62,68.4,unmined,stream,2.04,5.31
RB_pond,unmined_pond,5.129,0.2057,8.53550105,0.01766101,0.52824616,1.624187466,0.839180434,0.138755769,0.198685733,8.543088302,23.67616363,6.58,68,unmined,pond,1.87,7.16
reservoir,reservoir,4.031,0.791,15.52162168,0.72143487,1.8885808,1.791084848,1.1020723,0.05304983,0.053958953,2.961882584,4.896135479,8.2,79.3,mined,reservoir,8.07,13
SF,mined,4.149,0.508,8.1709108,0.44941497,2.56906214,0.254393549,0.989859871,0.044696804,0.071860903,17.56994394,7.25970466,6.93,65.4,mined,stream,5.04,13.2
ST,mined_strpond,4.449,1.02,11.44369095,1.13927731,2.45946916,0.261493574,0.529417906,0.070252528,0.060422502,26.8658716,11.41300694,7.01,64.4,mined,stream,14.5,25.3
ST_pond,mined_pond,5.27,0.4989,9.82914769,0.46332649,2.0424506,0.173256725,0.345901916,0.047197325,0.084949537,27.24126606,24.55885118,7.01,66.9,mined,pond,15.2,22.4
